{
  "name": "molten-module",
  "title": "Molten Module",
  "description": "A collection of modules and utilities that provide quality of life improvements while running games on Molten Hosting.",
  "version": "1.0.3",
  "library": "false",
  "minimumCoreVersion": "0.7.0",
  "compatibleCoreVersion": "0.8.6",
  "authors": [
    {
      "name": "VersaceHovercraft",
      "url": "https://moltenhosting.com"
    }
  ],
  "esmodules": ["./scripts/module.js"],
  "packs": [],
  "url": "https://gitlab.com/moltenhosting/molten-module",
  "manifest": "https://molten-cdn-storage.s3.amazonaws.com/molten-module/module.json",
  "download": "https://molten-cdn-storage.s3.amazonaws.com/molten-module/module.zip"
}
